^C:\USERS\PC10\DOCUMENTS\VISUAL STUDIO 2015\PROJECTS\REPO\KOMIWOJAŻER\KOMIWOJAŻER\SOURCE.CPP
C:\USERS\PC10\DOCUMENTS\VISUAL STUDIO 2015\PROJECTS\REPO\KOMIWOJAżER\KOMIWOJAżER\DEBUG\VC140.PDB
C:\USERS\PC10\DOCUMENTS\VISUAL STUDIO 2015\PROJECTS\REPO\KOMIWOJAżER\KOMIWOJAżER\DEBUG\VC140.IDB
C:\USERS\PC10\DOCUMENTS\VISUAL STUDIO 2015\PROJECTS\REPO\KOMIWOJAżER\KOMIWOJAżER\DEBUG\SOURCE.OBJ
