^C:\USERS\PC10\DOCUMENTS\VISUAL STUDIO 2015\PROJECTS\REPO\KOMIWOJAŻER\KOMIWOJAŻER\DEBUG\SOURCE.OBJ
C:\USERS\PC10\DOCUMENTS\VISUAL STUDIO 2015\PROJECTS\REPO\KOMIWOJAżER\DEBUG\KOMIWOJAżER.ILK
C:\USERS\PC10\DOCUMENTS\VISUAL STUDIO 2015\PROJECTS\REPO\KOMIWOJAżER\DEBUG\KOMIWOJAżER.EXE
C:\USERS\PC10\DOCUMENTS\VISUAL STUDIO 2015\PROJECTS\REPO\KOMIWOJAŻER\DEBUG\KOMIWOJAŻER.PDB
