﻿  Skipping... (no relevant changes detected)
  Source.cpp
  Sparse Table.vcxproj -> C:\Users\PC10\Documents\Visual Studio 2015\Projects\Repo\Sparse Table\Debug\Sparse Table.exe
  Sparse Table.vcxproj -> C:\Users\PC10\Documents\Visual Studio 2015\Projects\Repo\Sparse Table\Debug\Sparse Table.pdb (Partial PDB)
