^C:\USERS\PC10\DOCUMENTS\VISUAL STUDIO 2015\PROJECTS\REPO\SPARSE TABLE\SPARSE TABLE\SOURCE.CPP
C:\USERS\PC10\DOCUMENTS\VISUAL STUDIO 2015\PROJECTS\REPO\SPARSE TABLE\SPARSE TABLE\DEBUG\VC140.PDB
C:\USERS\PC10\DOCUMENTS\VISUAL STUDIO 2015\PROJECTS\REPO\SPARSE TABLE\SPARSE TABLE\DEBUG\VC140.IDB
C:\USERS\PC10\DOCUMENTS\VISUAL STUDIO 2015\PROJECTS\REPO\SPARSE TABLE\SPARSE TABLE\DEBUG\SOURCE.OBJ
